{
  "development": {
    "username": "djamware",
    "password": "b1l4n0",
    "database": "secure_node",
    "host": "127.0.0.1",
    "dialect": "postgres"
  },
  "test": {
    "username": "djamware",
    "password": "b1l4n0",
    "database": "secure_node",
    "host": "127.0.0.1",
    "dialect": "postgres"
  },
  "production": {
    "username": "djamware",
    "password": "b1l4n0",
    "database": "secure_node",
    "host": "127.0.0.1",
    "dialect": "postgres"
  }
}
